tests/wave.vcd
$date
	Fri May 23 17:14:53 2025
$end
$version
	Icarus Verilog
$end
$timescale
	1ps
$end
$scope module dut_test $end
$var wire 1 ! RST_N $end
$var wire 3 " read_address [2:0] $end
$var wire 1 # read_en $end
$var wire 1 $ read_rdy $end
$var wire 3 % write_address [2:0] $end
$var wire 1 & write_data $end
$var wire 1 ' write_en $end
$var wire 1 ( write_rdy $end
$var wire 1 ) read_data $end
$var reg 1 * CLK $end
$scope module dut_test1 $end
$var wire 1 * CLK $end
$var wire 1 ! RST_N $end
$var wire 1 + \a_data$whas $end
$var wire 1 , \a_ff$CLR $end
$var wire 1 - \a_ff$DEQ $end
$var wire 1 . \a_ff$D_IN $end
$var wire 1 / \a_ff$ENQ $end
$var wire 1 0 \b_data$whas $end
$var wire 1 1 \b_ff$CLR $end
$var wire 1 2 \b_ff$DEQ $end
$var wire 1 3 \b_ff$D_IN $end
$var wire 1 4 \b_ff$ENQ $end
$var wire 1 5 \counter$EN $end
$var wire 1 6 \pwyff_deq$whas $end
$var wire 3 7 read_address [2:0] $end
$var wire 1 # read_en $end
$var wire 1 $ read_rdy $end
$var wire 3 8 write_address [2:0] $end
$var wire 1 & write_data $end
$var wire 1 ' write_en $end
$var wire 1 ( write_rdy $end
$var wire 1 9 \y_ff$CLR $end
$var wire 1 : \y_ff$DEQ $end
$var wire 1 ; \y_ff$D_IN $end
$var wire 1 < \y_ff$ENQ $end
$var wire 1 = \y_ff$FULL_N $end
$var wire 1 > \y_ff$EMPTY_N $end
$var wire 1 ? \y_ff$D_OUT $end
$var wire 8 @ \counter$D_IN [7:0] $end
$var wire 1 A \b_ff$FULL_N $end
$var wire 1 B \b_ff$EMPTY_N $end
$var wire 1 C \b_ff$D_OUT $end
$var wire 1 D \a_ff$FULL_N $end
$var wire 1 E \a_ff$EMPTY_N $end
$var wire 1 F \a_ff$D_OUT $end
$var reg 8 G counter [7:0] $end
$var reg 1 ) read_data $end
$scope module a_ff $end
$var wire 1 * CLK $end
$var wire 1 , CLR $end
$var wire 1 - DEQ $end
$var wire 1 . D_IN $end
$var wire 1 E EMPTY_N $end
$var wire 1 / ENQ $end
$var wire 1 D FULL_N $end
$var wire 1 ! RST $end
$var wire 1 H d0d1 $end
$var wire 1 I d0di $end
$var wire 1 J d0h $end
$var wire 1 K d1di $end
$var wire 1 F D_OUT $end
$var parameter 1 L guarded $end
$var parameter 32 M width $end
$var reg 1 F data0_reg $end
$var reg 1 N data1_reg $end
$var reg 1 O empty_reg $end
$var reg 1 P full_reg $end
$scope begin error_checks $end
$var reg 1 Q deqerror $end
$var reg 1 R enqerror $end
$upscope $end
$upscope $end
$scope module b_ff $end
$var wire 1 * CLK $end
$var wire 1 1 CLR $end
$var wire 1 2 DEQ $end
$var wire 1 3 D_IN $end
$var wire 1 B EMPTY_N $end
$var wire 1 4 ENQ $end
$var wire 1 ! RST $end
$var wire 1 A FULL_N $end
$var parameter 1 S guarded $end
$var parameter 32 T width $end
$var reg 1 C D_OUT $end
$var reg 1 U empty_reg $end
$scope begin error_checks $end
$var reg 1 V deqerror $end
$var reg 1 W enqerror $end
$upscope $end
$upscope $end
$scope module y_ff $end
$var wire 1 * CLK $end
$var wire 1 9 CLR $end
$var wire 1 : DEQ $end
$var wire 1 ; D_IN $end
$var wire 1 ? D_OUT $end
$var wire 1 > EMPTY_N $end
$var wire 1 < ENQ $end
$var wire 1 = FULL_N $end
$var wire 1 ! RST $end
$var wire 1 X d0d1 $end
$var wire 1 Y d0di $end
$var wire 1 Z d0h $end
$var wire 1 [ d1di $end
$var parameter 1 \ guarded $end
$var parameter 32 ] width $end
$var reg 1 ^ data0_reg $end
$var reg 1 _ data1_reg $end
$var reg 1 ` empty_reg $end
$var reg 1 a full_reg $end
$scope begin error_checks $end
$var reg 1 b deqerror $end
$var reg 1 c enqerror $end
$upscope $end
$upscope $end
$upscope $end
$upscope $end
$enddefinitions $end
$comment Show the parameter values. $end
$dumpall
b1 ]
1\
b1 T
1S
b1 M
1L
$end
#0
$dumpvars
xc
xb
1a
0`
0_
0^
0[
1Z
0Y
0X
xW
xV
0U
xR
xQ
1P
0O
0N
0K
xJ
xI
0H
b10101010 G
0F
0E
1D
0C
0B
1A
b10101011 @
0?
0>
1=
0<
0;
0:
09
bz 8
bz 7
x6
15
x4
z3
02
01
x0
x/
z.
0-
0,
x+
0*
0)
1(
z'
z&
bz %
1$
z#
bz "
1!
$end
#1000
b1 @
b0 G
0!
#5000
0I
1J
0/
04
1)
06
0+
00
b0 "
b0 7
1#
0'
1!
x;
xF
0c
0b
0W
0V
0R
0Q
1*
#10000
0*
#15000
0#
b10 @
b1 G
1*
#20000
0J
1I
1/
1+
1.
13
1&
b100 %
b100 8
1'
0*
#25000
0/
0+
0'
1J
0I
0K
1;
1E
1O
1F
b11 @
b10 G
1*
#30000
1#
0*
#35000
0#
b100 @
b11 G
1*
#40000
1K
1/
1+
1'
0*
#45000
0+
0'
0K
0)
0/
0D
0P
1N
b101 @
b100 G
1*
#50000
b10 "
b10 7
1#
0*
#55000
0#
b110 @
b101 G
1*
#60000
1+
0.
03
0&
1'
0*
#65000
0+
0'
b111 @
b110 G
1*
#70000
16
b11 "
b11 7
1#
0*
#75000
06
0#
b1000 @
b111 G
1*
#80000
14
10
b101 %
b101 8
1'
0*
#85000
00
0'
04
0A
1B
1U
b1001 @
b1000 G
1*
#90000
b0 "
b0 7
1#
0*
#95000
0#
b1010 @
b1001 G
1*
#100000
1+
b100 %
b100 8
1'
0*
#105000
0+
0'
b1011 @
b1010 G
1*
#110000
b1 "
b1 7
1#
0*
#115000
0#
b1100 @
b1011 G
1*
#120000
1+
1'
0*
#125000
0+
0'
b1101 @
b1100 G
1*
#130000
16
b11 "
b11 7
1#
0*
#135000
06
0#
b1110 @
b1101 G
1*
#140000
10
1.
13
1&
b101 %
b101 8
1'
0*
#145000
00
0'
b1111 @
b1110 G
1*
#150000
b10 "
b10 7
1#
0*
#155000
0#
b10000 @
b1111 G
1*
#160000
10
0.
03
0&
1'
0*
#165000
00
0'
b10001 @
b10000 G
1*
#170000
16
b11 "
b11 7
1#
0*
#175000
06
0#
b10010 @
b10001 G
1*
#180000
10
1.
13
1&
1'
0*
#185000
00
0'
b10011 @
b10010 G
1*
#190000
b1 "
b1 7
1#
0*
#195000
0#
b10100 @
b10011 G
1*
#200000
1+
b100 %
b100 8
1'
0*
#205000
0+
0'
b10101 @
b10100 G
1*
#210000
b10 "
b10 7
1#
0*
#215000
0#
b10110 @
b10101 G
1*
#220000
1+
1'
0*
#225000
0+
0'
b10111 @
b10110 G
1*
#230000
1#
0*
#235000
0#
b11000 @
b10111 G
1*
#240000
10
b101 %
b101 8
1'
0*
#245000
00
0'
b11001 @
b11000 G
1*
#250000
1#
0*
#255000
0#
b11010 @
b11001 G
1*
#260000
10
0.
03
0&
1'
0*
#265000
00
0'
b11011 @
b11010 G
1*
#270000
b1 "
b1 7
1#
0*
#275000
0#
b11100 @
b11011 G
1*
#280000
10
1.
13
1&
1'
0*
#285000
00
0'
b11101 @
b11100 G
1*
#290000
16
b11 "
b11 7
1#
0*
#295000
06
0#
b11110 @
b11101 G
1*
#300000
10
0.
03
0&
1'
0*
#305000
00
0'
b11111 @
b11110 G
1*
#310000
b10 "
b10 7
1#
0*
#315000
0#
b100000 @
b11111 G
1*
#320000
10
1.
13
1&
1'
0*
#325000
00
0'
b100001 @
b100000 G
1*
#330000
16
b11 "
b11 7
1#
0*
#335000
06
0#
b100010 @
b100001 G
1*
#340000
1+
b100 %
b100 8
1'
0*
#345000
0+
0'
b100011 @
b100010 G
1*
#350000
b0 "
b0 7
1#
0*
#355000
0#
b100100 @
b100011 G
1*
#360000
10
0.
03
0&
b101 %
b101 8
1'
0*
#365000
00
0'
b100101 @
b100100 G
1*
#370000
1#
0*
#375000
0#
b100110 @
b100101 G
1*
#380000
10
1'
0*
#385000
00
0'
b100111 @
b100110 G
1*
#390000
16
b11 "
b11 7
1#
0*
#395000
06
0#
b101000 @
b100111 G
1*
#400000
1+
b100 %
b100 8
1'
0*
#405000
0+
0'
b101001 @
b101000 G
1*
#410000
b0 "
b0 7
1#
0*
#415000
0#
b101010 @
b101001 G
1*
#420000
1+
1.
13
1&
1'
0*
#425000
0+
0'
b101011 @
b101010 G
1*
#430000
0*
#435000
b101100 @
b101011 G
1*
#440000
0*
#445000
b101101 @
b101100 G
1*
#450000
0*
#455000
b101110 @
b101101 G
1*
#460000
0*
#465000
b101111 @
b101110 G
1*
#470000
0*
#475000
b110000 @
b101111 G
1*
#480000
0*
#485000
b110001 @
b110000 G
1*
#490000
0*
#495000
b110010 @
b110001 G
1*
#500000
0*
#505000
0J
0Z
1Y
1H
1-
12
1<
b110011 @
b110010 G
1*
#510000
0*
#515000
1Z
0Y
1J
0H
1)
0-
02
0<
1?
1^
1>
1`
1A
0B
0U
1D
1P
b110100 @
b110011 G
1*
#520000
0*
#525000
b110101 @
b110100 G
1*
#530000
0*
#535000
b110110 @
b110101 G
1*
#540000
0*
#545000
b110111 @
b110110 G
1*
#550000
0*
#555000
b111000 @
b110111 G
1*
#560000
0*
#565000
b111001 @
b111000 G
1*
#570000
0*
#575000
b111010 @
b111001 G
1*
#580000
0*
#585000
b111011 @
b111010 G
1*
#590000
0*
#595000
b111100 @
b111011 G
1*
#600000
0*
#605000
b111101 @
b111100 G
1*
#610000
0*
#615000
b111110 @
b111101 G
1*
#620000
0*
#625000
b111111 @
b111110 G
1*
#630000
0*
#635000
b1000000 @
b111111 G
1*
#640000
0*
#645000
b1000001 @
b1000000 G
1*
#650000
0*
#655000
b1000010 @
b1000001 G
1*
#660000
0*
#665000
b1000011 @
b1000010 G
1*
#670000
0*
#675000
b1000100 @
b1000011 G
1*
#680000
0*
#685000
b1000101 @
b1000100 G
1*
#690000
0*
#695000
b1000110 @
b1000101 G
1*
#700000
0*
#705000
b1000111 @
b1000110 G
1*
#710000
0*
#715000
b1001000 @
b1000111 G
1*
#720000
0*
#725000
b1001001 @
b1001000 G
1*
#730000
0*
#735000
b1001010 @
b1001001 G
1*
#740000
0*
#745000
b1001011 @
b1001010 G
1*
#750000
0*
#755000
b1001100 @
b1001011 G
1*
#760000
0*
#765000
b1001101 @
b1001100 G
1*
#770000
0*
#775000
b1001110 @
b1001101 G
1*
#780000
0*
#785000
b1001111 @
b1001110 G
1*
#790000
0*
#795000
b1010000 @
b1001111 G
1*
#800000
0*
#805000
b1010001 @
b1010000 G
1*
#810000
0*
#815000
b1010010 @
b1010001 G
1*
#820000
0*
#825000
b1010011 @
b1010010 G
1*
#830000
0*
#835000
b1010100 @
b1010011 G
1*
#840000
0*
#845000
b1010101 @
b1010100 G
1*
#850000
0*
#855000
b1010110 @
b1010101 G
1*
#860000
0*
#865000
b1010111 @
b1010110 G
1*
#870000
0*
#875000
b1011000 @
b1010111 G
1*
#880000
0*
#885000
b1011001 @
b1011000 G
1*
#890000
0*
#895000
b1011010 @
b1011001 G
1*
#900000
0*
#905000
b1011011 @
b1011010 G
1*
#910000
0*
#915000
b1011100 @
b1011011 G
1*
#920000
0*
#925000
b1011101 @
b1011100 G
1*
